{
  "name": "genericWrite",
  "runtime": "nodejs4.3",
  "description": "Serverless Lambda function for project: serverless-starter",
  "customName": false,
  "customRole": false,
  "handler": "handler.handler",
  "timeout": 6,
  "memorySize": 1024,
  "authorizer": {},
  "custom": {
    "excludePatterns": []
  },
  "endpoints": [
    {
      "path": "genericWrite",
      "method": "POST",
      "type": "AWS",
      "authorizationType": "none",
      "authorizerFunction": false,
      "apiKeyRequired": false,
      "requestParameters": {},
      "requestTemplates": {
        "application/json": ""
      },
      "responses": {
        "400": {
          "statusCode": "400"
        },
        "default": {
          "statusCode": "200",
          "responseParameters" : {

                        "method.response.header.Access-Control-Allow-Headers": "'Content-Type,x-requested-with,Access-Control-Allow-Origin,Access-Control-Allow-Headers,Access-Control-Allow-Methods'",
                        "method.response.header.Access-Control-Allow-Methods": "'POST, GET, OPTIONS'",
                        "method.response.header.Access-Control-Allow-Origin": "'*'",
                        "method.response.header.X-Requested-With": "'*'"
          },
          "responseModels": {
            "application/json;charset=UTF-8": "Empty"
          },
          "responseTemplates": {
            "application/json;charset=UTF-8": ""
          }
        }
      }
    },
    {
      "path": "genericWrite",
      "method": "OPTIONS",
      "type": "AWS",
      "authorizationType": "none",
      "authorizerFunction": false,
      "apiKeyRequired": false,
      "requestParameters": {},
      "requestTemplates": {
        "application/json": ""
      },
      "responses": {
        "400": {
          "statusCode": "400"
        },
        "default": {
          "statusCode": "200",
          "responseParameters" : {

                        "method.response.header.Access-Control-Allow-Headers": "'Content-Type,x-requested-with,Access-Control-Allow-Origin,Access-Control-Allow-Headers,Access-Control-Allow-Methods'",
                        "method.response.header.Access-Control-Allow-Methods": "'POST, GET, OPTIONS'",
                        "method.response.header.Access-Control-Allow-Origin": "'*'",
                        "method.response.header.X-Requested-With": "'*'"
          },
          "responseModels": {
            "application/json;charset=UTF-8": "Empty"
          },
          "responseTemplates": {
            "application/json;charset=UTF-8": ""
          }
        }
      }
    }
  ],
  "events": [],
  "environment": {
    "SERVERLESS_PROJECT": "${project}",
    "SERVERLESS_STAGE": "${stage}",
    "SERVERLESS_REGION": "${region}"
  },
  "vpc": {
    "securityGroupIds": [],
    "subnetIds": []
  }
}
